"Emp_ID","W_Date","Commercial_ID","Emp_Start","Emp_Stop"
"B00001","2020-05-01","5928830210122","2020-05-01 00:00:00","2020-05-01 08:00:00"
"B00001","2020-05-02","5928830210122","2020-05-02 00:00:00","2020-05-02 08:00:00"
"B00001","2020-05-03","5928830210122","2020-05-03 00:00:00","2020-05-03 08:00:00"
"B00001","2020-05-04","5928830210122","2020-05-04 00:00:00","2020-05-04 08:00:00"
"B00001","2020-05-05","5928830210122","2020-05-05 00:00:00","2020-05-05 08:00:00"
"B00001","2020-05-06","5928830210122","2020-05-06 00:00:00","2020-05-06 08:00:00"
"B00001","2020-05-07","5928830210122","2020-05-07 00:00:00","2020-05-07 08:00:00"
"B00001","2020-05-08","5928830210122","2020-05-08 00:00:00","2020-05-08 08:00:00"
"B00001","2020-05-09","5928830210122","2020-05-09 00:00:00","2020-05-09 08:00:00"
"B00001","2020-05-10","5928830210122","2020-05-10 00:00:00","2020-05-10 08:00:00"
"B00001","2020-05-11","5928830210122","2020-05-11 00:00:00","2020-05-11 08:00:00"
"B00001","2020-05-12","5928830210122","2020-05-12 00:00:00","2020-05-12 08:00:00"
"B00001","2020-05-13","5928830210122","2020-05-13 00:00:00","2020-05-13 08:00:00"
"B00001","2020-05-14","5928830210122","2020-05-14 00:00:00","2020-05-14 08:00:00"
"B00001","2020-05-15","5928830210122","2020-05-15 00:00:00","2020-05-15 08:00:00"
"B00001","2020-05-16","5928830210122","2020-05-16 00:00:00","2020-05-16 08:00:00"
"B00001","2020-05-17","5928830210122","2020-05-17 00:00:00","2020-05-17 08:00:00"
"B00001","2020-05-18","5928830210122","2020-05-18 00:00:00","2020-05-18 08:00:00"
"B00001","2020-05-19","5928830210122","2020-05-19 00:00:00","2020-05-19 08:00:00"
"B00001","2020-05-20","5928830210122","2020-05-20 00:00:00","2020-05-20 08:00:00"
"B00001","2020-05-21","5928830210122","2020-05-21 00:00:00","2020-05-21 08:00:00"
"B00001","2020-05-22","5928830210122","2020-05-22 00:00:00","2020-05-22 08:00:00"
"B00001","2020-05-23","5928830210122","2020-05-23 00:00:00","2020-05-23 08:00:00"
"B00001","2020-05-24","5928830210122","2020-05-24 00:00:00","2020-05-24 08:00:00"
"B00001","2020-05-25","5928830210122","2020-05-25 00:00:00","2020-05-25 08:00:00"
"B00001","2020-05-26","5928830210122","2020-05-26 00:00:00","2020-05-26 08:00:00"
"B00001","2020-05-27","5928830210122","2020-05-27 00:00:00","2020-05-27 08:00:00"
"B00001","2020-05-28","5928830210122","2020-05-28 00:00:00","2020-05-28 08:00:00"
"B00001","2020-05-29","5928830210122","2020-05-29 00:00:00","2020-05-29 08:00:00"
"B00001","2020-05-30","5928830210122","2020-05-30 00:00:00","2020-05-30 08:00:00"
"B00001","2020-05-31","5928830210122","2020-05-31 00:00:00","2020-05-31 08:00:00"
"B00001","2020-06-01","5928830210122","2020-06-01 00:00:00","2020-06-01 08:00:00"
"B00001","2020-06-02","5928830210122","2020-06-02 00:00:00","2020-06-02 08:00:00"
"B00001","2020-06-03","5928830210122","2020-06-03 00:00:00","2020-06-03 08:00:00"
"B00002","2020-05-01","5928830210122","2020-05-01 08:00:01","2020-05-01 16:00:00"
"B00002","2020-05-02","5928830210122","2020-05-02 08:00:01","2020-05-02 16:00:00"
"B00002","2020-05-03","5928830210122","2020-05-03 08:00:01","2020-05-03 16:00:00"
"B00002","2020-05-04","5928830210122","2020-05-04 08:00:01","2020-05-04 16:00:00"
"B00002","2020-05-05","5928830210122","2020-05-05 08:00:01","2020-05-05 16:00:00"
"B00002","2020-05-06","5928830210122","2020-05-06 08:00:01","2020-05-06 16:00:00"
"B00002","2020-05-07","5928830210122","2020-05-07 08:00:01","2020-05-07 16:00:00"
"B00002","2020-05-08","5928830210122","2020-05-08 08:00:01","2020-05-08 16:00:00"
"B00002","2020-05-09","5928830210122","2020-05-09 08:00:01","2020-05-09 16:00:00"
"B00002","2020-05-10","5928830210122","2020-05-10 08:00:01","2020-05-10 16:00:00"
"B00002","2020-05-11","5928830210122","2020-05-11 08:00:01","2020-05-11 16:00:00"
"B00002","2020-05-12","5928830210122","2020-05-12 08:00:01","2020-05-12 16:00:00"
"B00002","2020-05-13","5928830210122","2020-05-13 08:00:01","2020-05-13 16:00:00"
"B00002","2020-05-14","5928830210122","2020-05-14 08:00:01","2020-05-14 16:00:00"
"B00002","2020-05-15","5928830210122","2020-05-15 08:00:01","2020-05-15 16:00:00"
"B00002","2020-05-16","5928830210122","2020-05-16 08:00:01","2020-05-16 16:00:00"
"B00002","2020-05-17","5928830210122","2020-05-17 08:00:01","2020-05-17 16:00:00"
"B00002","2020-05-18","5928830210122","2020-05-18 08:00:01","2020-05-18 16:00:00"
"B00002","2020-05-19","5928830210122","2020-05-19 08:00:01","2020-05-19 16:00:00"
"B00002","2020-05-20","5928830210122","2020-05-20 08:00:01","2020-05-20 16:00:00"
"B00002","2020-05-21","5928830210122","2020-05-21 08:00:01","2020-05-21 16:00:00"
"B00002","2020-05-22","5928830210122","2020-05-22 08:00:01","2020-05-22 16:00:00"
"B00002","2020-05-23","5928830210122","2020-05-23 08:00:01","2020-05-23 16:00:00"
"B00002","2020-05-24","5928830210122","2020-05-24 08:00:01","2020-05-24 16:00:00"
"B00002","2020-05-25","5928830210122","2020-05-25 08:00:01","2020-05-25 16:00:00"
"B00002","2020-05-26","5928830210122","2020-05-26 08:00:01","2020-05-26 16:00:00"
"B00002","2020-05-27","5928830210122","2020-05-27 08:00:01","2020-05-27 16:00:00"
"B00002","2020-05-28","5928830210122","2020-05-28 08:00:01","2020-05-28 16:00:00"
"B00002","2020-05-29","5928830210122","2020-05-29 08:00:01","2020-05-29 16:00:00"
"B00002","2020-05-30","5928830210122","2020-05-30 08:00:01","2020-05-30 16:00:00"
"B00002","2020-05-31","5928830210122","2020-05-31 08:00:01","2020-05-31 16:00:00"
"B00002","2020-06-01","5928830210122","2020-06-01 08:00:01","2020-06-01 16:00:00"
"B00002","2020-06-02","5928830210122","2020-06-02 08:00:01","2020-06-02 16:00:00"
"B00002","2020-06-03","5928830210122","2020-06-03 08:00:01","2020-06-03 16:00:00"
"B00003","2020-05-01","5928830210122","2020-05-01 16:00:01","2020-05-01 23:59:59"
"B00003","2020-05-02","5928830210122","2020-05-02 16:00:01","2020-05-02 23:59:59"
"B00003","2020-05-03","5928830210122","2020-05-03 16:00:01","2020-05-03 23:59:59"
"B00003","2020-05-04","5928830210122","2020-05-04 16:00:01","2020-05-04 23:59:59"
"B00003","2020-05-05","5928830210122","2020-05-05 16:00:01","2020-05-05 23:59:59"
"B00003","2020-05-06","5928830210122","2020-05-06 16:00:01","2020-05-06 23:59:59"
"B00003","2020-05-07","5928830210122","2020-05-07 16:00:01","2020-05-07 23:59:59"
"B00003","2020-05-08","5928830210122","2020-05-08 16:00:01","2020-05-08 23:59:59"
"B00003","2020-05-09","5928830210122","2020-05-09 16:00:01","2020-05-09 23:59:59"
"B00003","2020-05-10","5928830210122","2020-05-10 16:00:01","2020-05-10 23:59:59"
"B00003","2020-05-11","5928830210122","2020-05-11 16:00:01","2020-05-11 23:59:59"
"B00003","2020-05-12","5928830210122","2020-05-12 16:00:01","2020-05-12 23:59:59"
"B00003","2020-05-13","5928830210122","2020-05-13 16:00:01","2020-05-13 23:59:59"
"B00003","2020-05-14","5928830210122","2020-05-14 16:00:01","2020-05-14 23:59:59"
"B00003","2020-05-15","5928830210122","2020-05-15 16:00:01","2020-05-15 23:59:59"
"B00003","2020-05-16","5928830210122","2020-05-16 16:00:01","2020-05-16 23:59:59"
"B00003","2020-05-17","5928830210122","2020-05-17 16:00:01","2020-05-17 23:59:59"
"B00003","2020-05-18","5928830210122","2020-05-18 16:00:01","2020-05-18 23:59:59"
"B00003","2020-05-19","5928830210122","2020-05-19 16:00:01","2020-05-19 23:59:59"
"B00003","2020-05-20","5928830210122","2020-05-20 16:00:01","2020-05-20 23:59:59"
"B00003","2020-05-21","5928830210122","2020-05-21 16:00:01","2020-05-21 23:59:59"
"B00003","2020-05-22","5928830210122","2020-05-22 16:00:01","2020-05-22 23:59:59"
"B00003","2020-05-23","5928830210122","2020-05-23 16:00:01","2020-05-23 23:59:59"
"B00003","2020-05-24","5928830210122","2020-05-24 16:00:01","2020-05-24 23:59:59"
"B00003","2020-05-25","5928830210122","2020-05-25 16:00:01","2020-05-25 23:59:59"
"B00003","2020-05-26","5928830210122","2020-05-26 16:00:01","2020-05-26 23:59:59"
"B00003","2020-05-27","5928830210122","2020-05-27 16:00:01","2020-05-27 23:59:59"
"B00003","2020-05-28","5928830210122","2020-05-28 16:00:01","2020-05-28 23:59:59"
"B00003","2020-05-29","5928830210122","2020-05-29 16:00:01","2020-05-29 23:59:59"
"B00003","2020-05-30","5928830210122","2020-05-30 16:00:01","2020-05-30 23:59:59"
"B00003","2020-05-31","5928830210122","2020-05-31 16:00:01","2020-05-31 23:59:59"
"B00003","2020-06-01","5928830210122","2020-06-01 16:00:01","2020-06-01 23:59:59"
"B00003","2020-06-02","5928830210122","2020-06-02 16:00:01","2020-06-02 23:59:59"
"B00003","2020-06-03","5928830210122","2020-06-03 16:00:01","2020-06-03 23:59:59"
